[STAT 560] Presentation - Abstract
…
## 'data.frame':    489 obs. of  8 variables:
##  $ Order.ID             : int  18041 18045 18064 18098 18146 18167 18179 18269 18290 18300 ...
##  $ Order.Status         : Factor w/ 10 levels "Awaiting Fulfillment",..: 9 8 8 10 10 10 10 10 10 10 ...
##  $ Order.Date           : Factor w/ 1381 levels "01-13-2015","01-13-2016",..: 168 172 180 204 115 127 143 312 324 328 ...
##  $ Order.Time           : Factor w/ 11031 levels "0:00:29","0:00:39",..: 8058 1017 6013 7452 2699 7121 5839 3703 2627 1732 ...
##  $ Order.Total..inc.tax.: num  105 238 79 62 134 ...
##  $ Customer.ID          : int  94666 82493 93355 95198 81683 95226 95236 95282 95296 89114 ...
##  $ Product.Details      : chr  "9519" "10117" "9439|9443|10307|10465" "10232|10443" ...
##  $ Transaction.ID       : Factor w/ 11960 levels "","00035057VE553154W",..: 11702 11693 11730 11767 11807 11833 11846 5683 11521 11529 ...

## # A tibble: 367 x 2
## # Groups:   prdID [367]
##     prdID     n
##    <fctr> <int>
##  1  11986    24
##  2  10613    18
##  3  10668    16
##  4  10785    15
##  5  11980    14
##  6  10786    12
##  7  10725     9
##  8  10629     8
##  9  10676     8
## 10  14825     8
## # ... with 357 more rows
…
